\relax 
\providecommand\hyper@newdestlabel[2]{}
\providecommand\HyperFirstAtBeginDocument{\AtBeginDocument}
\HyperFirstAtBeginDocument{\ifx\hyper@anchor\@undefined
\global\let\oldcontentsline\contentsline
\gdef\contentsline#1#2#3#4{\oldcontentsline{#1}{#2}{#3}}
\global\let\oldnewlabel\newlabel
\gdef\newlabel#1#2{\newlabelxx{#1}#2}
\gdef\newlabelxx#1#2#3#4#5#6{\oldnewlabel{#1}{{#2}{#3}}}
\AtEndDocument{\ifx\hyper@anchor\@undefined
\let\contentsline\oldcontentsline
\let\newlabel\oldnewlabel
\fi}
\fi}
\global\let\hyper@last\relax 
\gdef\HyperFirstAtBeginDocument#1{#1}
\providecommand\HyField@AuxAddToFields[1]{}
\providecommand\HyField@AuxAddToCoFields[2]{}
\citation{chapter1}
\citation{seforscience}
\providecommand\tcolorbox@label[2]{}
\@writefile{toc}{\contentsline {section}{\numberline {I}Introduction}{1}{section.1}}
\newlabel{sec:Introduction}{{I}{1}{Introduction}{section.1}{}}
\citation{Storer2017}
\@writefile{toc}{\contentsline {section}{\numberline {II}Bridging The Chasm: A Survey Of Software Engineering Practices In Scientific Programming \cite  {Storer2017}}{2}{section.2}}
\newlabel{sec:bridging}{{II}{2}{Bridging The Chasm: A Survey Of Software Engineering Practices In Scientific Programming \cite {Storer2017}}{section.2}{}}
\@writefile{toc}{\contentsline {subsection}{\numberline {\unhbox \voidb@x \hbox {II-A}}Case study}{2}{subsection.2.1}}
\@writefile{toc}{\contentsline {subsection}{\numberline {\unhbox \voidb@x \hbox {II-B}}Practices}{2}{subsection.2.2}}
\@writefile{toc}{\contentsline {subsection}{\numberline {\unhbox \voidb@x \hbox {II-C}}Methods}{2}{subsection.2.3}}
\citation{KANEWALA20141219}
\citation{articlesds}
\@writefile{toc}{\contentsline {subsection}{\numberline {\unhbox \voidb@x \hbox {II-D}}New Approaches}{3}{subsection.2.4}}
\@writefile{toc}{\contentsline {subsection}{\numberline {\unhbox \voidb@x \hbox {II-E}}Data Quality}{3}{subsection.2.5}}
\@writefile{toc}{\contentsline {subsection}{\numberline {\unhbox \voidb@x \hbox {II-F}}Developers}{3}{subsection.2.6}}
\@writefile{toc}{\contentsline {subsection}{\numberline {\unhbox \voidb@x \hbox {II-G}}Management}{3}{subsection.2.7}}
\@writefile{toc}{\contentsline {subsection}{\numberline {\unhbox \voidb@x \hbox {II-H}}Conclusion}{3}{subsection.2.8}}
\@writefile{toc}{\contentsline {section}{\numberline {III}Testing Scientific Software: A Systematic Literature Review \cite  {KANEWALA20141219}}{3}{section.3}}
\newlabel{sec:testing}{{III}{3}{Testing Scientific Software: A Systematic Literature Review \cite {KANEWALA20141219}}{section.3}{}}
\@writefile{toc}{\contentsline {subsection}{\numberline {\unhbox \voidb@x \hbox {III-A}}Study Selection}{3}{subsection.3.1}}
\@writefile{toc}{\contentsline {subsection}{\numberline {\unhbox \voidb@x \hbox {III-B}}Faults Categorization}{4}{subsection.3.2}}
\@writefile{toc}{\contentsline {subsubsection}{\numberline {\unhbox \voidb@x \hbox {III-B}1}Challenges due to Characteristics}{4}{subsubsection.3.2.1}}
\@writefile{toc}{\contentsline {subsubsection}{\numberline {\unhbox \voidb@x \hbox {III-B}2}Challenges due to Cultural Differences}{4}{subsubsection.3.2.2}}
\@writefile{toc}{\contentsline {subsection}{\numberline {\unhbox \voidb@x \hbox {III-C}}Testing Methods}{4}{subsection.3.3}}
\citation{Nanthaamornphong2017}
\@writefile{toc}{\contentsline {subsection}{\numberline {\unhbox \voidb@x \hbox {III-D}}Limitations}{5}{subsection.3.4}}
\@writefile{toc}{\contentsline {subsection}{\numberline {\unhbox \voidb@x \hbox {III-E}}Conclusion}{5}{subsection.3.5}}
\@writefile{toc}{\contentsline {section}{\numberline {IV}Test Driven Development: A Survey \cite  {Nanthaamornphong2017}}{5}{section.4}}
\newlabel{sec:tdd}{{IV}{5}{Test Driven Development: A Survey \cite {Nanthaamornphong2017}}{section.4}{}}
\@writefile{toc}{\contentsline {subsection}{\numberline {\unhbox \voidb@x \hbox {IV-A}}Methodology}{5}{subsection.4.1}}
\@writefile{toc}{\contentsline {subsection}{\numberline {\unhbox \voidb@x \hbox {IV-B}}Benefits of TDD}{5}{subsection.4.2}}
\@writefile{toc}{\contentsline {subsection}{\numberline {\unhbox \voidb@x \hbox {IV-C}}Testing Problems}{5}{subsection.4.3}}
\@writefile{toc}{\contentsline {subsection}{\numberline {\unhbox \voidb@x \hbox {IV-D}}Solutions to Testing Problems}{6}{subsection.4.4}}
\@writefile{toc}{\contentsline {subsection}{\numberline {\unhbox \voidb@x \hbox {IV-E}}Refactoring Problems}{6}{subsection.4.5}}
\@writefile{toc}{\contentsline {subsection}{\numberline {\unhbox \voidb@x \hbox {IV-F}}Solutions to Refactoring Problems}{6}{subsection.4.6}}
\@writefile{toc}{\contentsline {subsection}{\numberline {\unhbox \voidb@x \hbox {IV-G}}Challenges}{6}{subsection.4.7}}
\@writefile{toc}{\contentsline {subsection}{\numberline {\unhbox \voidb@x \hbox {IV-H}}Testing Practices}{6}{subsection.4.8}}
\@writefile{toc}{\contentsline {subsection}{\numberline {\unhbox \voidb@x \hbox {IV-I}}Limitations}{6}{subsection.4.9}}
\citation{Heaton2015207}
\@writefile{toc}{\contentsline {subsection}{\numberline {\unhbox \voidb@x \hbox {IV-J}}conclusion}{7}{subsection.4.10}}
\@writefile{toc}{\contentsline {section}{\numberline {V}Claims About The Use Of Software Engineering Practices In Ssience \cite  {Heaton2015207}}{7}{section.5}}
\newlabel{sec:claims}{{V}{7}{Claims About The Use Of Software Engineering Practices In Ssience \cite {Heaton2015207}}{section.5}{}}
\@writefile{toc}{\contentsline {subsection}{\numberline {\unhbox \voidb@x \hbox {V-A}}Methodology}{7}{subsection.5.1}}
\@writefile{toc}{\contentsline {subsection}{\numberline {\unhbox \voidb@x \hbox {V-B}}Claims}{7}{subsection.5.2}}
\@writefile{toc}{\contentsline {subsubsection}{\numberline {\unhbox \voidb@x \hbox {V-B}1}Claims on Lifecycle}{7}{subsubsection.5.2.1}}
\@writefile{toc}{\contentsline {subsubsection}{\numberline {\unhbox \voidb@x \hbox {V-B}2}Claims on Requirements}{7}{subsubsection.5.2.2}}
\@writefile{toc}{\contentsline {subsubsection}{\numberline {\unhbox \voidb@x \hbox {V-B}3}Claims on Design}{7}{subsubsection.5.2.3}}
\@writefile{toc}{\contentsline {subsubsection}{\numberline {\unhbox \voidb@x \hbox {V-B}4}Claims on Testing}{7}{subsubsection.5.2.4}}
\@writefile{toc}{\contentsline {subsubsection}{\numberline {\unhbox \voidb@x \hbox {V-B}5}Claims on Validation and Verification}{7}{subsubsection.5.2.5}}
\citation{10.1371/journal.pbio.1001745}
\@writefile{toc}{\contentsline {subsubsection}{\numberline {\unhbox \voidb@x \hbox {V-B}6}Claims on Refactoring}{8}{subsubsection.5.2.6}}
\@writefile{toc}{\contentsline {subsubsection}{\numberline {\unhbox \voidb@x \hbox {V-B}7}Claims on Documentation}{8}{subsubsection.5.2.7}}
\@writefile{toc}{\contentsline {subsubsection}{\numberline {\unhbox \voidb@x \hbox {V-B}8}Claims on Infrastructure}{8}{subsubsection.5.2.8}}
\@writefile{toc}{\contentsline {subsubsection}{\numberline {\unhbox \voidb@x \hbox {V-B}9}Claims on Reuse}{8}{subsubsection.5.2.9}}
\@writefile{toc}{\contentsline {subsubsection}{\numberline {\unhbox \voidb@x \hbox {V-B}10}Claims on Third-Party Software}{8}{subsubsection.5.2.10}}
\@writefile{toc}{\contentsline {subsubsection}{\numberline {\unhbox \voidb@x \hbox {V-B}11}Claims on Version Control}{8}{subsubsection.5.2.11}}
\@writefile{toc}{\contentsline {subsection}{\numberline {\unhbox \voidb@x \hbox {V-C}}Conclusion}{8}{subsection.5.3}}
\@writefile{toc}{\contentsline {section}{\numberline {VI}Best Practices For Scientific Computing \cite  {10.1371/journal.pbio.1001745}}{8}{section.6}}
\newlabel{sec:best_practices}{{VI}{8}{Best Practices For Scientific Computing \cite {10.1371/journal.pbio.1001745}}{section.6}{}}
\@writefile{toc}{\contentsline {subsection}{\numberline {\unhbox \voidb@x \hbox {VI-A}}Best Practices}{8}{subsection.6.1}}
\@writefile{toc}{\contentsline {subsubsection}{\numberline {\unhbox \voidb@x \hbox {VI-A}1}Writing Code for People}{8}{subsubsection.6.1.1}}
\@writefile{toc}{\contentsline {subsubsection}{\numberline {\unhbox \voidb@x \hbox {VI-A}2}Computer to do the Work}{8}{subsubsection.6.1.2}}
\citation{Storer2017}
\citation{Storer2017}
\citation{Heaton2015207}
\citation{Heaton2015207}
\citation{5069156}
\citation{Heaton2015207}
\citation{seforscience}
\citation{Heaton2015207}
\@writefile{toc}{\contentsline {subsubsection}{\numberline {\unhbox \voidb@x \hbox {VI-A}3}Incremental Changes}{9}{subsubsection.6.1.3}}
\@writefile{toc}{\contentsline {subsubsection}{\numberline {\unhbox \voidb@x \hbox {VI-A}4}Repeating Yourself}{9}{subsubsection.6.1.4}}
\@writefile{toc}{\contentsline {subsubsection}{\numberline {\unhbox \voidb@x \hbox {VI-A}5}Plan for Mistakes}{9}{subsubsection.6.1.5}}
\@writefile{toc}{\contentsline {subsubsection}{\numberline {\unhbox \voidb@x \hbox {VI-A}6}Performance}{9}{subsubsection.6.1.6}}
\@writefile{toc}{\contentsline {subsubsection}{\numberline {\unhbox \voidb@x \hbox {VI-A}7}Documentation}{9}{subsubsection.6.1.7}}
\@writefile{toc}{\contentsline {subsubsection}{\numberline {\unhbox \voidb@x \hbox {VI-A}8}Collaborate}{9}{subsubsection.6.1.8}}
\@writefile{toc}{\contentsline {section}{\numberline {VII}Synthesis}{9}{section.7}}
\newlabel{sec:synthesis}{{VII}{9}{Synthesis}{section.7}{}}
\@writefile{toc}{\contentsline {subsection}{\numberline {\unhbox \voidb@x \hbox {VII-A}}Introduction}{9}{subsection.7.1}}
\@writefile{toc}{\contentsline {subsection}{\numberline {\unhbox \voidb@x \hbox {VII-B}}Requirements}{9}{subsection.7.2}}
\@writefile{toc}{\contentsline {subsubsection}{\numberline {\unhbox \voidb@x \hbox {VII-B}1}Practices}{9}{subsubsection.7.2.1}}
\citation{Storer2017}
\citation{Heaton2015207}
\citation{Heaton2015207}
\citation{Segal2009}
\citation{seforscience}
\citation{design_pattern_book}
\citation{Heaton2015207}
\citation{Storer2017}
\citation{Heaton2015207}
\citation{chapter1}
\citation{Segal2005}
\citation{Storer2017}
\citation{Storer2017}
\citation{Nanthaamornphong2017}
\citation{chapter1}
\citation{KANEWALA20141219}
\citation{Storer2017}
\citation{Heaton2015207}
\citation{Heaton2015207}
\citation{5069156}
\@writefile{toc}{\contentsline {subsubsection}{\numberline {\unhbox \voidb@x \hbox {VII-B}2}Challenges}{10}{subsubsection.7.2.2}}
\@writefile{toc}{\contentsline {subsubsection}{\numberline {\unhbox \voidb@x \hbox {VII-B}3}Possibilities}{10}{subsubsection.7.2.3}}
\@writefile{toc}{\contentsline {subsection}{\numberline {\unhbox \voidb@x \hbox {VII-C}}Design}{10}{subsection.7.3}}
\@writefile{toc}{\contentsline {subsubsection}{\numberline {\unhbox \voidb@x \hbox {VII-C}1}Practices}{10}{subsubsection.7.3.1}}
\@writefile{toc}{\contentsline {subsubsection}{\numberline {\unhbox \voidb@x \hbox {VII-C}2}Challenges}{10}{subsubsection.7.3.2}}
\@writefile{toc}{\contentsline {subsubsection}{\numberline {\unhbox \voidb@x \hbox {VII-C}3}Possibilities}{10}{subsubsection.7.3.3}}
\@writefile{toc}{\contentsline {subsection}{\numberline {\unhbox \voidb@x \hbox {VII-D}}Development}{10}{subsection.7.4}}
\@writefile{toc}{\contentsline {subsubsection}{\numberline {\unhbox \voidb@x \hbox {VII-D}1}Practices}{10}{subsubsection.7.4.1}}
\@writefile{toc}{\contentsline {subsubsection}{\numberline {\unhbox \voidb@x \hbox {VII-D}2}Challenges}{10}{subsubsection.7.4.2}}
\@writefile{toc}{\contentsline {subsubsection}{\numberline {\unhbox \voidb@x \hbox {VII-D}3}Possibilities}{10}{subsubsection.7.4.3}}
\citation{KANEWALA20141219}
\citation{Nanthaamornphong2017}
\citation{KANEWALA20141219}
\citation{KANEWALA20141219}
\citation{Nanthaamornphong2017}
\citation{Oberkampf2002209}
\citation{Heaton2015207}
\citation{Monniaux:2008:PVF:1353445.1353446}
\citation{Heaton2015207}
\citation{Heaton2015207}
\citation{Storer2017}
\citation{chapter1}
\citation{5069155}
\@writefile{toc}{\contentsline {subsection}{\numberline {\unhbox \voidb@x \hbox {VII-E}}Testing}{11}{subsection.7.5}}
\@writefile{toc}{\contentsline {subsubsection}{\numberline {\unhbox \voidb@x \hbox {VII-E}1}Practices}{11}{subsubsection.7.5.1}}
\@writefile{toc}{\contentsline {subsubsection}{\numberline {\unhbox \voidb@x \hbox {VII-E}2}Challenges}{11}{subsubsection.7.5.2}}
\@writefile{toc}{\contentsline {subsubsection}{\numberline {\unhbox \voidb@x \hbox {VII-E}3}Possibilities}{11}{subsubsection.7.5.3}}
\@writefile{toc}{\contentsline {subsection}{\numberline {\unhbox \voidb@x \hbox {VII-F}}Verification and Validation}{11}{subsection.7.6}}
\@writefile{toc}{\contentsline {subsubsection}{\numberline {\unhbox \voidb@x \hbox {VII-F}1}Practices}{11}{subsubsection.7.6.1}}
\@writefile{toc}{\contentsline {subsubsection}{\numberline {\unhbox \voidb@x \hbox {VII-F}2}Challenges}{11}{subsubsection.7.6.2}}
\@writefile{toc}{\contentsline {subsubsection}{\numberline {\unhbox \voidb@x \hbox {VII-F}3}Possibilities}{11}{subsubsection.7.6.3}}
\@writefile{toc}{\contentsline {subsection}{\numberline {\unhbox \voidb@x \hbox {VII-G}}Maintenance and Usage}{11}{subsection.7.7}}
\citation{10.1371/journal.pbio.1001745}
\citation{chapter3}
\citation{ORCHARD2014713}
\citation{nature_merali}
\citation{nature_merali}
\citation{5069155}
\citation{chapter3}
\citation{10.1371/journal.pbio.1001745}
\citation{Storer2017}
\citation{KANEWALA20141219}
\citation{Nanthaamornphong2017}
\citation{Heaton2015207}
\citation{10.1371/journal.pbio.1001745}
\citation{6148202}
\@writefile{toc}{\contentsline {subsection}{\numberline {\unhbox \voidb@x \hbox {VII-H}}Best Practices}{12}{subsection.7.8}}
\@writefile{toc}{\contentsline {section}{\numberline {VIII}State Of The Art}{12}{section.8}}
\newlabel{sec:state_of_the_art}{{VIII}{12}{State Of The Art}{section.8}{}}
\@writefile{toc}{\contentsline {subsection}{\numberline {\unhbox \voidb@x \hbox {VIII-A}}Understandability}{12}{subsection.8.1}}
\@writefile{toc}{\contentsline {subsection}{\numberline {\unhbox \voidb@x \hbox {VIII-B}}Testability}{12}{subsection.8.2}}
\@writefile{toc}{\contentsline {subsection}{\numberline {\unhbox \voidb@x \hbox {VIII-C}}Communication}{12}{subsection.8.3}}
\@writefile{toc}{\contentsline {subsection}{\numberline {\unhbox \voidb@x \hbox {VIII-D}}Influence of the Core Papers}{12}{subsection.8.4}}
\@writefile{toc}{\contentsline {section}{\numberline {IX}Future Direction}{12}{section.9}}
\newlabel{sec:future_direction}{{IX}{12}{Future Direction}{section.9}{}}
\bibstyle{ieeetr}
\bibdata{SEforScientificSoftware}
\bibcite{chapter1}{1}
\bibcite{seforscience}{2}
\bibcite{Storer2017}{3}
\bibcite{KANEWALA20141219}{4}
\bibcite{articlesds}{5}
\bibcite{Nanthaamornphong2017}{6}
\bibcite{Heaton2015207}{7}
\bibcite{10.1371/journal.pbio.1001745}{8}
\bibcite{5069156}{9}
\bibcite{Segal2009}{10}
\bibcite{design_pattern_book}{11}
\bibcite{Segal2005}{12}
\bibcite{Oberkampf2002209}{13}
\bibcite{Monniaux:2008:PVF:1353445.1353446}{14}
\bibcite{5069155}{15}
\bibcite{chapter3}{16}
\bibcite{ORCHARD2014713}{17}
\bibcite{nature_merali}{18}
\bibcite{6148202}{19}
\@writefile{toc}{\contentsline {section}{\numberline {X}Conclusion}{13}{section.10}}
\newlabel{sec:Conclusion}{{X}{13}{Conclusion}{section.10}{}}
\@writefile{toc}{\contentsline {section}{References}{13}{section*.1}}
